stationIndex|busRouteIndex|busRouteId|busRouteName|stationSequence|arsId|stationName|gpsX|gpsY|startTime|endTime
1||196102063||1|14703|연암|129.36912940359846|35.580236512626136||
2||196102063||2|26400|에프유|129.37541730495903|35.58077132093997||
3||196102063||3|26401|오에스|129.37439889972256|35.582918055551666||
4||196102063||4|26402|중앙공업|129.3748186507371|35.58013588567799||
5||196102063||5|14702|상방마을|129.36587320846021|35.581113286189805||
6||196102063||6|26341|북구청남문|129.36140600159302|35.58087101615939||
7||196102063||7|30933|농수산물유통센터후문|129.35570152826844|35.58082648223461||
8||196102063||8|30901|서동시장|129.34686540610562|35.58077897420009||
9||196102063||9|30903|삼일초등학교앞|129.34354838454948|35.58046981474583||
10||196102063||10|30905|삼익세라믹앞|129.34170949269557|35.57830380821471||
11||196102063||11|11201|구동중학교앞|129.33868939094015|35.57417324873331||
12||196102063||12|11203|약사중학교|129.34010275636814|35.569621401184165||
13||196102063||13|11205|선우시장|129.34284989856982|35.56864617019451||
14||196102063||14|40507|평산초등학교앞|129.34143087916|35.56767382405106||
15||196102063||15|40509|삼성아파트앞|129.3375749615279|35.56540873543352||
16||196102063||16|31703|홈플러스앞|129.336290020835|35.56360268099895||
17||196102063||17|31705|신울산종합시장|129.33822005495426|35.56144272172825||
18||196102063||18|24301|학성공원|129.33755906343202|35.556442448275654||
19||196102063||19|24707|이마트학성점앞|129.33097735745872|35.55540150493617||
20||196102063||20|24709|신중앙시장|129.32849926612263|35.555332497680624||
21||196102063||21|24711|역전시장|129.32679422146717|35.5554364323188||
22||196102063||22|24713|중앙전통시장|129.32503025063704|35.5550943605213||
23||196102063||23|21606|성남동|129.3188916200073|35.55305830540239||
24||196102063||24|21602|우정지하도앞|129.31040432715605|35.55313677331904||
25||196102063||25|22501|태화로터리|129.30713161759834|35.54620498246272||
26||196102063||26|22503|신정1동주민센터|129.3060498094221|35.54227294666129||
27||196102063||27|22505|산업은행앞|129.3053180361107|35.538023873313726||
28||196102063||28|22507|신정2동주민센터입구|129.30673289388378|35.53387712366896||
29||196102063||29|31201|올림푸스아파트앞|129.31005915980174|35.53171399526954||
30||196102063||30|31203|동서오거리|129.31440918572835|35.53069715048982||
31||196102063||31|31205|수암시장앞|129.32059431202285|35.52798424874168||
32||196102063||32|31207|동부아파트입구|129.3234062298435|35.5268280791589||
33||196102063||33|31209|대현동주민센터|129.3275424028794|35.52668447906603||
34||196102063||34|31211|야음시장앞|129.33158045806002|35.52422350802185||
35||196102063||35|31213|울산번개시장앞|129.335447574494|35.52163260869347||
36||196102063||36|31221|야음장생포동주민센터|129.3384499782704|35.52012607166933||
37||196102063||37|23502|변전소|129.34107876387833|35.51764675328344||
38||195102262||1|24014|제5부두앞|129.37305663399815|35.51914055282204||
39||195102262||2|24012|제3,4부두입구|129.3734136059228|35.520927535814145||
40||195102262||3|24010|쌍용양회앞|129.3706964570386|35.524069474919635||
41||195102262||4|24008|삼성정밀화학앞|129.35564331644517|35.528688165704736||
42||195102262||5|24006|주식회사조비앞|129.35174137966274|35.52593504515033||
43||195102262||6|24004|신화마을|129.34172028257439|35.52431146371811||
44||195102262||7|24002|남구국민체육센터|129.3373090414713|35.52354164367071||
45||195102262||8|31212|야음시장앞|129.33178748872706|35.52434356117349||
46||195102262||9|31210|대현초등학교앞|129.3257893610916|35.5268933686417||
47||195102262||10|31208|동부아파트입구|129.32307733694864|35.52710433233107||
48||195102262||11|31206|수암시장앞|129.3194875131877|35.528768740253064||
49||195102262||12|31204|동서오거리|129.31505721266106|35.530738115639||
50||195102262||13|40401|공업탑|129.3098683418206|35.53271626787151||
51||195102262||14|31114|달동사거리|129.31392099128462|35.53565914778643||
52||195102262||15|31110|시청앞|129.31232773095036|35.539779927653136||
53||195102262||16|31106|신정시장앞|129.31061871249733|35.54407406208882||
54||195102262||17|31104|태화로터리|129.30943463662587|35.54710603459572||
55||195102262||18|21603|우정지하도앞|129.31027740699105|35.55282599807474||
56||195102262||19|21409|성남프라자앞|129.31758548840045|35.554161438190235||
57||195102262||20|21403|옥교동|129.32328410278978|35.55560060649461||
58||195102262||21|21406|구역전시장앞|129.32772588320228|35.55644562454843||
59||195102262||22|21407|학성새벽시장|129.33169527526752|35.556821532867005||
60||195102262||23|24302|학성공원|129.33752120757887|35.555863201418916||
61||195102262||24|31706|신울산종합시장|129.33838608954986|35.56159073195232||
62||195102262||25|31704|홈플러스앞|129.33669702869636|35.563471653103036||
63||195102262||26|40510|삼성아파트앞|129.33880193977095|35.56563177254258||
64||195102262||27|40508|평산초등학교앞|129.34204986101184|35.56752884089825||
65||195102262||28|40506|병영사거리|129.34555280583615|35.5687809048202||
66||195102262||29|11308|현대골든아파트앞|129.35011970341895|35.572642988605885||
67||195102262||30|11306|산전마을|129.35048763798176|35.57437401267141||
68||195102262||31|11304|산전교앞|129.3498574733725|35.57796998674737||
69||195102262||32|11302|한국폴리텍대학앞|129.3484904337246|35.580085964845274||
70||195102262||33|30934|농수산물유통센터후문|129.35739724403484|35.580503306483436||
71||195102262||34|26342|북구청남문|129.36223684581054|35.580749818830654||
72||195102262||35|14701|상방마을|129.36437590367666|35.580909219516734||
73||195102262||36|14703|연암|129.36912940359846|35.580236512626136||
74||196102332||1|40234|울산과학기술대|129.19188221500661|35.573013238973395||
75||196102332||2|40231|울산과학기술대정문|129.19474480178144|35.572064375382794||
76||196102332||3|40229|울산과학기술대입구|129.19988615252467|35.5721835369377||
77||196102332||4|40203|사연|129.20199642250577|35.57186970095198||
78||196102332||5|40205|진목회관|129.2079384286089|35.57215064793465||
79||196102332||6|40207|진목|129.21293885016385|35.5725600531346||
80||196102332||7|40209|입암|129.22376903953742|35.573204273146324||
81||196102332||8|40211|범서읍주민센터|129.23024774210222|35.569094042030095||
82||196102332||9|40214|천상1교사거리|129.23231742478734|35.56830174492039||
83||196102332||10|20744|구영리입구|129.23293942451934|35.57092649988128||
84||196102332||11|20403|현대2차아파트|129.23595613230782|35.57114228430282||
85||196102332||12|20406|일신아파트앞|129.23903871686844|35.5704637903443||
86||196102332||13|20408|현대3차아파트앞|129.24073181415076|35.57026529385942||
87||196102332||14|20410|한신아파트앞|129.2410036040251|35.57262436152519||
88||196102332||15|20415|우미린2차,푸르지오2차|129.24181895243214|35.57303687665855||
89||196102332||16|20411|범서중학교앞|129.24368165953896|35.568504360194474||
90||196102332||17|20425|대리|129.24808987995098|35.565976488919304||
91||196102332||18|40215|구영교|129.24839283259018|35.560377628224536||
92||196102332||19|40217|백천마을|129.25105810781548|35.55938857392075||
93||196102332||20|40219|울산상업고등학교|129.25374357587856|35.558494077426516||
94||196102332||21|40221|굴화마을|129.25792830225868|35.55767640191141||
95||196102332||22|40223|굴화주공아파트앞|129.26391927478687|35.55525384959657||
96||196102332||23|40225|삼호지하차도|129.2671218886741|35.554062417942426||
97||196102332||24|21201|삼호교앞|129.27818538474253|35.5550372325475||
98||196102332||25|21203|제일중학교앞|129.28456335251664|35.5535123525302||
99||196102332||26|21205|학성여중앞|129.29040023445398|35.55321749795488||
100||196102332||27|21207|태화동|129.29527218979612|35.55225905569443||
101||196102332||28|21209|동강병원앞|129.3009829701349|35.55241608363578||
102||196102332||29|21211|태화루|129.3068713459959|35.55403891172632||
103||196102332||30|21603|우정지하도앞|129.31027740699105|35.55282599807474||
104||196102332||31|21409|성남프라자앞|129.31758548840045|35.554161438190235||
105||196102332||32|21403|옥교동|129.32328410278978|35.55560060649461||
106||196102332||33|21406|구역전시장앞|129.32772588320228|35.55644562454843||
107||196102332||34|21407|학성새벽시장|129.33169527526752|35.556821532867005||
108||196102332||35|24302|학성공원|129.33752120757887|35.555863201418916||
109||196102332||36|31706|신울산종합시장|129.33838608954986|35.56159073195232||
110||196102332||37|31704|홈플러스앞|129.33669702869636|35.563471653103036||
111||196102332||38|40510|삼성아파트앞|129.33880193977095|35.56563177254258||
112||196102332||39|40508|평산초등학교앞|129.34204986101184|35.56752884089825||
113||196102332||40|40506|병영사거리|129.34555280583615|35.5687809048202||
114||196102332||41|11308|현대골든아파트앞|129.35011970341895|35.572642988605885||
115||196102332||42|11306|산전마을|129.35048763798176|35.57437401267141||
116||196102332||43|11304|산전교앞|129.3498574733725|35.57796998674737||
117||196102332||44|11302|한국폴리텍대학앞|129.3484904337246|35.580085964845274||
118||196102332||45|40332|북구청앞|129.35989029015053|35.58224223051492||
119||196102332||46|40330|무룡고등학교앞|129.3591300993028|35.58629928196089||
120||196102332||47|40328|울산공항앞|129.35792795685558|35.59244623783659||
121||196102332||48|40326|송정동|129.35509522480916|35.60159640650069||
122||196102332||49|40324|유아교육진흥원|129.3538700776838|35.604722926780035||
123||196102332||50|25320|원지마을입구|129.35469383869798|35.60822821442008||
124||196102332||51|25318|농소공영차고지|129.3568851035355|35.61108599212367||
125||196103081||1|15418|삼남신화|129.1253280338182|35.53802448771228||
126||196103081||2|15404|쌍수마을|129.13257616093955|35.54054290310331||
127||196103081||3|15429|KTX울산역|129.13872680548485|35.55194059155868||
128||196103081||4|30412|언양자동차학원|129.13872186025998|35.55741550266626||
129||196103081||5|30410|울주도서관|129.13735708206124|35.558134717153884||
130||196103081||6|30408|어음하리|129.1341231832932|35.56003967441335||
131||196103081||7|30406|언양고등학교|129.13302998931354|35.560900686837556||
132||196103081||8|30402|어음상리|129.1301162003628|35.562791108191185||
133||196103081||9|30347|언양정류장|129.1269859442705|35.563018495145464||
134||196103081||10|30242|축협|129.1247729784986|35.56292141004136||
135||196103081||11|15612|언양우체국|129.1249673784175|35.566641944942||
136||196103081||12|15610|언양읍주민센터|129.12516176746095|35.56920141656955||
137||196103081||13|20302|언양중학교|129.12780955646588|35.569794397465394||
138||196103081||14|30346|신흥마을|129.13034650894176|35.574040573630526||
139||196103081||15|30344|고동골|129.1326432697786|35.58149466457204||
140||196103081||16|30342|신화(태기)입구|129.13376409198474|35.588491675927706||
141||196103081||17|30340|정거리|129.13468477693354|35.593889677253195||
142||196103081||18|30338|고속도휴게소|129.13571472638992|35.59658268306225||
143||196103081||19|30336|다개입구|129.1378123104143|35.59967158660087||
144||196103081||20|30334|반곡초등학교|129.1403516542853|35.60291013399567||
145||196103081||21|30332|고하입구|129.14171724546014|35.60464090377839||
146||196103081||22|30330|옥동|129.14463056135543|35.60734887049598||
147||196103081||23|30328|진현|129.14618959961695|35.6103770267257||
148||196103081||24|30326|반구대입구|129.1473872871177|35.61360836649473||
149||196103081||25|30324|구량천전|129.14935111621725|35.616717100415606||
150||196103081||26|30322|방말|129.1578497612403|35.63078463366862||
151||196103081||27|30320|대정|129.15858426595454|35.63477132860615||
152||196103081||28|30318|서하|129.1581591023287|35.638661336542945||
153||196103081||29|30316|인보|129.16049501443715|35.64286732924105||
154||196103081||30|30366|두서면사무소|129.16095880622254|35.64564084032931||
155||196103081||31|15294|두동입구|129.1659576213299|35.65222652883823||
156||196103081||32|30314|두광중학교|129.16905551814065|35.65650658269423||
157||196103081||33|30312|전읍|129.17267422225402|35.662555659125154||
158||196103081||34|30310|유촌입구|129.17356108743792|35.66502425603822||
159||196103081||35|30308|두서농공단지|129.1743370379375|35.66774769673237||
160||196103081||36|30304|가정마을|129.19362406067484|35.691739477726685||
161||196103081||37|30302|활천입구|129.1959921654525|35.709166858441336||
162||196103081||38|30352|계명마을|129.19635925286468|35.71227730454978||
163||196103081||39|15201|봉계|129.1975985298287|35.713619372980574||
164||196104012||1|19014|꽃바위|129.4099185149935|35.47819246241734||
165||196104012||2|25001|화암|129.41195522605068|35.47786249936064||
166||196104012||3|25003|비치타운앞|129.4157609379852|35.48144149100353||
167||196104012||4|25005|우성현대아파트앞|129.41880480106937|35.483550694468||
168||196104012||5|25011|해피랜드아파트앞|129.4226327880911|35.48522221905063||
169||196104012||6|25007|방어동주민센터|129.42430014723703|35.485887650264445||
170||196104012||7|25009|방어진초등학교후문|129.42577985258484|35.48787880247553||
171||196104012||8|24236|대왕암공원입구|129.42635260015186|35.49159485606251||
172||196104012||9|24234|일산해수욕장|129.42795751503147|35.49775487859158||
173||196104012||10|24232|번덕마을|129.42889532771275|35.501440960058794||
174||196104012||11|24230|현대중공업일산문|129.42970424292906|35.50509999358487||
175||196104012||12|24228|동부경찰서앞|129.43016394291826|35.50798065848564||
176||196104012||13|24226|동울산우체국앞|129.43069098286804|35.51154999026859||
177||196104012||14|24224|전하시장앞|129.43244383916644|35.51580900475498||
178||196104012||15|24222|전하1동주민센터|129.43190802502053|35.51784085406798||
179||196104012||16|24220|현대중공업울산대학병원앞|129.43208207849435|35.52108068638275||
180||196104012||17|24218|남목2동|129.43312054333774|35.524389084416974||
181||196104012||18|24216|서부패밀리아파트앞|129.43323730530312|35.52794705614588||
182||196104012||19|24214|현대중공업미포문앞|129.432604156315|35.53290399179643||
183||196104012||20|24212|현대청운고앞|129.42984004048466|35.53624493002998||
184||196104012||21|24210|남목1동|129.42608516540236|35.539408539636845||
185||196104012||22|24208|남목1동주민센터|129.420785916108|35.5391527898907||
186||196104012||23|24206|남목고등학교|129.41838704035595|35.53718072355988||
187||196104012||24|24204|정수장|129.4090581914054|35.530264661516746||
188||196104012||25|30634|성내|129.39920532151203|35.525651235698774||
189||196104012||26|30632|염포동|129.3962209342924|35.52874495109114||
190||196104012||27|30630|성원상떼빌앞|129.3920787468973|35.5318801948733||
191||196104012||28|30628|신전|129.38876850049613|35.536209523365955||
192||196104012||29|30626|현대자동차4공장앞|129.38635193945854|35.54012493958548||
193||196104012||30|30624|현대자동차정문|129.3847256873713|35.544485567898576||
194||196104012||31|30622|양정힐스테이트앞|129.38291122028932|35.55015831701983||
195||196104012||32|30620|현대자동차2공장|129.38094233695477|35.554252770710164||
196||196104012||33|30618|아랫율동|129.37919599807466|35.55694786403885||
197||196104012||34|30616|현대출고사무소앞|129.37571423947938|35.55962333837758||
198||196104012||35|30614|효정고등학교입구|129.37266217233275|35.56043558681968||
199||196104012||36|30612|합동공업사앞|129.36809762431997|35.56100660729229||
200||196104012||37|40337|효문사거리|129.3612080934384|35.56097328051505||
201||196104012||38|40339|현대자동차명촌정문앞|129.36013387279218|35.5559265127655||
202||196104012||39|40341|평창리비에르아파트앞|129.358359185344|35.55125311528932||
203||196104012||40|40343|태화강역|129.35377846581443|35.541918339326465||
204||196104012||41|40428|이마트앞|129.3490377371599|35.54004365308405||
205||196104012||42|40422|농수산물도매시장앞|129.3419497663701|35.54010748627788||
206||196104012||43|40420|시외고속버스터미널|129.33776639548014|35.53958712375921||
207||196104012||44|40418|현대백화점앞|129.3341814050275|35.53890378917847||
208||196104012||45|40416|목화예식장앞|129.33060294678967|35.53820149019391||
209||196104012||46|40414|현대해상앞|129.32653501206488|35.537345435332185||
210||196104012||47|40412|달동현대아파트앞|129.32310989719213|35.53646734525863||
211||196104012||48|40410|굿모닝병원앞|129.32054730842322|35.5358350644831||
212||196104012||49|40408|롯데마트|129.31635923458|35.53473891890672||
213||196104012||50|40404|공업탑|129.30936225207023|35.53290851234016||
214||196104012||51|40614|신정고등학교앞|129.3022981886205|35.53328152596869||
215||196104012||52|40610|옥동초등학교|129.2971511633646|35.534124182702946||
216||196104012||53|40608|울주군청앞|129.2932811054222|35.534791911403005||
217||196104012||54|40606|법원|129.28888510769974|35.535449224868515||
218||196104012||55|40603|옥동중학교앞|129.28549022827448|35.535999284920905||
219||196104012||56|40602|공원묘지입구|129.2784829372634|35.53811125377838||
220||196104012||57|40620|보건환경연구원|129.27080028966049|35.538547299504295||
221||196104012||58|22404|성광여고앞|129.2650787960781|35.54157188829633||
222||196104012||59|22402|옥현주공아파트앞|129.26434159793445|35.54501893215593||
223||196104012||60|30703|신복로터리|129.2628015336732|35.5492418912129||
224||196104012||61|30705|울산대후문앞|129.2611685990153|35.54628684439996||
225||196104012||62|30707|울산대학교앞|129.25943276098994|35.54285980003063||
226||196104012||63|30711|울산과학대학앞|129.25707887289198|35.5399506695413||
227||196104012||64|30713|문수경기장입구|129.25413996489775|35.536651649668876||
228||196104012||65|30597|문수실버복지관|129.25155580778494|35.53493049458871||
229||196104012||66|30503|율리|129.24685027944395|35.52945640846956||
230||196104022||1|40301|모화|129.33173163201366|35.682447579700224||
231||196104022||2|40303|태화방직앞|129.33391382023711|35.67752362592862||
232||196104022||3|40305|성도아파트입구|129.33542595002984|35.67385071796565||
233||196104022||4|40307|태화고등학교앞|129.33583907844624|35.67025366956048||
234||196104022||5|40309|메아리학교앞|129.3391768122955|35.66517226229997||
235||196104022||6|40311|이화마을|129.33901366438718|35.661699675813445||
236||196104022||7|40313|화정마을|129.340995620688|35.656883861795635||
237||196104022||8|40315|약수제일아파트앞|129.34245279662142|35.649195823653464||
238||196104022||9|40317|약수마을|129.34283197005885|35.64673782767197||
239||196104022||10|40319|천곡사거리|129.34398215001508|35.6411749144715||
240||196104022||11|25301|농소2동주민센터|129.34671125059015|35.63819793105436||
241||196104022||12|25303|한라신천지타운앞|129.34832239447883|35.63470602256532||
242||196104022||13|25305|신천|129.3506094952182|35.631638077826004||
243||196104022||14|25307|시장2리|129.35100974451603|35.627626319808186||
244||196104022||15|25309|농소중학교앞|129.35399471754027|35.62422753066004||
245||196104022||16|25311|농소1동주민센터앞|129.3553465089929|35.62209081445001||
246||196104022||17|25313|농소운동장|129.35628344137297|35.62009205202673||
247||196104022||18|25315|차일마을|129.3572900486273|35.61662179890829||
248||196104022||19|25317|농소공영차고지|129.35679374761457|35.611283245699674||
249||196104022||20|25319|원지마을입구|129.35493520625178|35.608875842422215||
250||196104022||21|40323|유아교육진흥원|129.3533844513461|35.60473714111384||
251||196104022||22|40325|송정동|129.35454953569757|35.601818858891804||
252||196104022||23|40327|울산공항앞|129.3574983543961|35.59252531444731||
253||196104022||24|26101|화봉중학교앞|129.35993539326202|35.58817943333771||
254||196104022||25|26103|화봉시장앞|129.36561214774392|35.58817312234326||
255||196104022||26|25701|LG진로아파트앞|129.36583019776546|35.58584640923298||
256||196104022||27|25703|벽산아파트앞|129.3639683161973|35.5823693607752||
257||196104022||28|26341|북구청남문|129.36140600159302|35.58087101615939||
258||196104022||29|14824|농수산물유통센터정문|129.3561035892972|35.57861610412858||
259||196104022||30|14816|롯데마트진장점|129.3562539997567|35.575675604093||
260||196104022||31|14820|우편집중국앞|129.3563521496675|35.57380411465775||
261||196104022||32|14822|차량등록사업소입구|129.35562815304303|35.57041124246725||
262||196104022||33|40501|중부경찰서|129.35013168801763|35.57028007674908||
263||196104022||34|40503|병영1동주민센터앞|129.34646284370928|35.56954195108498||
264||196104022||35|40505|병영사거리|129.34429678105792|35.56906284248311||
265||196104022||36|24701|북울산전화국앞|129.34210199504142|35.56420181520651||
266||196104022||37|24703|학성초등학교후문|129.34051016578778|35.56038079672735||
267||196104022||38|24705|학성공원|129.3381559687263|35.55677102120781||
268||196104022||39|24303|옥성초등학교앞|129.3359393358537|35.55251562879384||
269||196104022||40|21614|학성배수장|129.3323094594524|35.551805592464724||
270||196104022||41|21612|풍적맨션앞|129.3280194669318|35.552165474607925||
271||196104022||42|21606|성남동|129.3188916200073|35.55305830540239||
272||196104022||43|21212|태화루|129.30775730716863|35.553867919005064||
273||196104022||44|21210|동강병원앞|129.30092766052056|35.55261436422404||
274||196104022||45|21208|태화동|129.29603975487814|35.55222744310517||
275||196104022||46|21206|학성여중앞|129.2910506129556|35.55346141749864||
276||196104022||47|21204|제일중학교앞|129.28461252998363|35.553708128343416||
277||196104022||48|21202|삼호교앞|129.2777667347209|35.55539823605313||
278||196104022||49|12201|삼호|129.27435122747056|35.55196342166685||
279||196104022||50|12203|삼호주공아파트앞|129.27302051834158|35.54985812927791||
280||196104022||51|22604|삼호시영아파트앞|129.26965850729104|35.54975301853135||
281||196104022||52|22602|삼호중학교앞|129.26607360770444|35.54989656782637||
282||196104022||53|30703|신복로터리|129.2628015336732|35.5492418912129||
283||196104022||54|30705|울산대후문앞|129.2611685990153|35.54628684439996||
284||196104022||55|30707|울산대학교앞|129.25943276098994|35.54285980003063||
285||196104022||56|30711|울산과학대학앞|129.25707887289198|35.5399506695413||
286||196104022||57|30713|문수경기장입구|129.25413996489775|35.536651649668876||
287||196104022||58|30597|문수실버복지관|129.25155580778494|35.53493049458871||
288||196104022||59|30503|율리|129.24685027944395|35.52945640846956||
289||196104082||1|11409|골드클래스|129.34472574898106|35.588744661680735||
290||196104082||2|11407|동중학교|129.34241486971328|35.58494528862323||
291||196104082||3|11411|KCC스위첸|129.3394856818397|35.579753066978306||
292||196104082||4|11709|내약마을|129.32555118978715|35.58526892183203||
293||196104082||5|11707|성안파출소|129.3229519761569|35.58083803083101||
294||196104082||6|11705|성안청구아파트입구|129.31799735017992|35.57787901693274||
295||196104082||7|23901|백양초등학교|129.31726447612553|35.5767611809769||
296||196104082||8|23909|경찰청|129.3152233355903|35.57391768369483||
297||196104082||9|11806|백양사|129.31213747854653|35.57427533348446||
298||196104082||10|11804|국토정보공사|129.30912960198825|35.57516733424556||
299||196104082||11|72001|금호아파트|129.30578405187387|35.57558712534417||
300||196104082||12|72003|길촌입구|129.3011286106685|35.572736737507846||
301||196104082||13|30923|교육청앞|129.3027612273391|35.561759765717674||
302||196104082||14|30925|함월고등학교|129.29736619097315|35.55965668396201||
303||196104082||15|21204|제일중학교앞|129.28461252998363|35.553708128343416||
304||196104082||16|21202|삼호교앞|129.2777667347209|35.55539823605313||
305||196104082||17|22003|무거복개천|129.27665459624976|35.55136648639143||
306||196104082||18|22611|정광사앞|129.28238393886588|35.54743616237536||
307||196104082||19|22608|정광사약수터앞|129.27847565469514|35.547736694349275||
308||196104082||20|22606|삼호주공아파트후문|129.27372156806751|35.54928583227329||
309||196104082||21|22604|삼호시영아파트앞|129.26965850729104|35.54975301853135||
310||196104082||22|22602|삼호중학교앞|129.26607360770444|35.54989656782637||
311||196104082||23|30703|신복로터리|129.2628015336732|35.5492418912129||
312||196104082||24|30705|울산대후문앞|129.2611685990153|35.54628684439996||
313||196104082||25|30707|울산대학교앞|129.25943276098994|35.54285980003063||
314||196104082||26|30711|울산과학대학앞|129.25707887289198|35.5399506695413||
315||196104082||27|30713|문수경기장입구|129.25413996489775|35.536651649668876||
316||196104082||28|30597|문수실버복지관|129.25155580778494|35.53493049458871||
317||196104082||29|30503|율리|129.24685027944395|35.52945640846956||
318||196104533||1|30504|율리|129.24705019108407|35.52921503820716||
319||196104533||2|30714|우신고등학교입구|129.25526381377162|35.53747163114245||
320||196104533||3|30712|울산과학대학앞|129.25737976483651|35.539857813997564||
321||196104533||4|30708|울산대학교앞|129.26024568344098|35.54380876611638||
322||196104533||5|30706|울산대후문앞|129.261867633339|35.54674086187228||
323||196104533||6|30704|신복로터리|129.2630004459419|35.5488318311222||
324||196104533||7|22401|옥현주공아파트앞|129.263801592218|35.54600090798647||
325||196104533||8|22403|성광여고앞|129.26436981568315|35.54166087066438||
326||196104533||9|22407|갈티마을입구|129.27443928235624|35.52672312905786||
327||196104533||10|22409|울산대공원남문|129.28474907173575|35.52644522447012||
328||196104533||11|22411|갈현마을회관|129.28897426934057|35.523543811276255||
329||196104533||12|22413|중간갈티마을입구|129.2969015576067|35.51968166710636||
330||196104533||13|22415|문수정입구|129.30105863243344|35.518137776664844||
331||196104533||14|31308|삼일여고입구|129.311689111531|35.51956894061001||
332||196104533||15|31306|한라훼미리아파트앞|129.31269351258686|35.52196507601061||
333||196104533||16|31304|신일중학교앞|129.31122040721164|35.52532208006877||
334||196104533||17|31302|울산대공원동문앞|129.3082622101436|35.531129982857394||
335||196104533||18|40403|공업탑|129.3101711044649|35.53278178034381||
336||196104533||19|40407|롯데마트|129.31691608654629|35.53455221641973||
337||196104533||20|40409|굿모닝병원앞|129.31977202242257|35.535295226547746||
338||196104533||21|40411|달동현대아파트앞|129.32372201383373|35.53634032264056||
339||196104533||22|40413|현대해상앞|129.32665098375966|35.53707242802853||
340||196104533||23|40415|목화예식장앞|129.3307019597958|35.537899497022096||
341||196104533||24|40417|현대백화점앞|129.333845895256|35.538518608522075||
342||196104533||25|40419|시외고속버스터미널|129.33806590144067|35.53922768419841||
343||196104533||26|40421|농수산물도매시장앞|129.34290429306026|35.53976999122098||
344||196104533||27|40425|이마트앞|129.34820102719814|35.539695444983316||
345||196104533||28|40344|태화강역|129.353246283872|35.54118058747686||
346||196104533||29|40342|평창리비에르아파트앞|129.35889747779757|35.55153630251127||
347||196104533||30|40340|현대자동차명촌정문앞|129.36082303485347|35.55665592391898||
348||196104533||31|40338|효문사거리|129.36151307329715|35.563094255996745||
349||196104533||32|40336|울산경제진흥원|129.36096279128037|35.571017292985154||
350||196104533||33|40334|효문동주민센터앞|129.36054747906675|35.577899260528916||
351||196104533||34|26342|북구청남문|129.36223684581054|35.580749818830654||
352||196104533||35|14701|상방마을|129.36437590367666|35.580909219516734||
353||196104533||36|26108|연암동|129.36914639650567|35.58282953419953||
354||196104533||37|26106|연암초등학교앞|129.37015820191007|35.586001514222055||
355||196104533||38|26104|화봉시장앞|129.36541712942483|35.588423415022056||
356||196104533||39|26102|화봉중학교앞|129.35990118794146|35.588409228440014||
357||196104533||40|40328|울산공항앞|129.35792795685558|35.59244623783659||
358||196104533||41|40326|송정동|129.35509522480916|35.60159640650069||
359||196104533||42|40324|유아교육진흥원|129.3538700776838|35.604722926780035||
360||196104533||43|25320|원지마을입구|129.35469383869798|35.60822821442008||
361||196104533||44|25318|농소공영차고지|129.3568851035355|35.61108599212367||
362||196104533||45|25316|차일마을|129.35745061053223|35.61642417656391||
363||196104533||46|25314|농소운동장|129.356263120517|35.62044043682427||
364||196104533||47|25312|농소1동주민센터앞|129.35538954968234|35.6222914444099||
365||196104533||48|25310|농소중학교앞|129.35369135869058|35.62488621166299||
366||196104533||49|20208|홈플러스북구점|129.34462614782564|35.62929391023143||
367||196104533||50|20206|쌍용아진그린타운1차|129.34209238813315|35.62891993259508||
368||196104533||51|20204|쌍용아진그린타운2차|129.33869224365213|35.63089427763274||
369||196104533||52|20202|쌍용아진그린타운3차|129.33560983211282|35.63090680165753||
370||196104533||53|20216|쌍용아진그린타운4차|129.3352737668769|35.631450860439756||
371||196104533||54|14211|아이파크1차|129.32989400907792|35.63436116769894||
372||196104533||55|14210|아이파크2차|129.327950815995|35.63290073992782||
373||196104533||56|14507|달천농공단지입구|129.31670980594342|35.631373568719276||
374||196104533||57|14509|달천회관앞|129.31480485655797|35.63056743209433||
375||196104533||58|14508|달천농공단지입구|129.3168867143491|35.631245651661445||
376||196104533||59|61803|그린카운티아파트앞|129.32519563851864|35.63053864777902||
377||196104533||60|14212|아이파크2차|129.32819100851188|35.632959810715384||
378||196104533||61|14209|아이파크1차|129.32976596638267|35.63427461336323||
379||196104533||62|20213|상안초등학교|129.33504548047054|35.63286507160077||
380||196104533||63|20201|쌍용아진그린타운3차|129.33602784132384|35.63075510227122||
381||196104533||64|20203|쌍용아진그린타운2차|129.3399714059695|35.63022777653357||
382||196104533||65|20205|쌍용아진그린타운1차|129.34276483901183|35.62866707027851||
383||196104533||66|20207|홈플러스북구점|129.34516966338035|35.62917364474193||
384||196104533||67|25309|농소중학교앞|129.35399471754027|35.62422753066004||
385||196104533||68|25311|농소1동주민센터앞|129.3553465089929|35.62209081445001||
386||196104533||69|25313|농소운동장|129.35628344137297|35.62009205202673||
387||196104533||70|25315|차일마을|129.3572900486273|35.61662179890829||
388||196104533||71|25317|농소공영차고지|129.35679374761457|35.611283245699674||
389||196104533||72|25319|원지마을입구|129.35493520625178|35.608875842422215||
390||196104533||73|40323|유아교육진흥원|129.3533844513461|35.60473714111384||
391||196104533||74|40325|송정동|129.35454953569757|35.601818858891804||
392||196104533||75|40327|울산공항앞|129.3574983543961|35.59252531444731||
393||196104533||76|26101|화봉중학교앞|129.35993539326202|35.58817943333771||
394||196104533||77|26103|화봉시장앞|129.36561214774392|35.58817312234326||
395||196104533||78|26105|연암초등학교앞|129.36987016915276|35.58702654810126||
396||196104533||79|26107|연암동|129.3680243181918|35.58229349953265||
397||196104533||80|14702|상방마을|129.36587320846021|35.581113286189805||
398||196104533||81|26341|북구청남문|129.36140600159302|35.58087101615939||
399||196104533||82|40333|효문동주민센터앞|129.36013346662995|35.57760823167953||
400||196104533||83|40335|울산경제진흥원|129.3605847382737|35.57100831804447||
401||196104533||84|40337|효문사거리|129.3612080934384|35.56097328051505||
402||196104533||85|40339|현대자동차명촌정문앞|129.36013387279218|35.5559265127655||
403||196104533||86|40341|평창리비에르아파트앞|129.358359185344|35.55125311528932||
404||196104533||87|40343|태화강역|129.35377846581443|35.541918339326465||
405||196104533||88|40428|이마트앞|129.3490377371599|35.54004365308405||
406||196104533||89|40422|농수산물도매시장앞|129.3419497663701|35.54010748627788||
407||196104533||90|40420|시외고속버스터미널|129.33776639548014|35.53958712375921||
408||196104533||91|40418|현대백화점앞|129.3341814050275|35.53890378917847||
409||196104533||92|40416|목화예식장앞|129.33060294678967|35.53820149019391||
410||196104533||93|40414|현대해상앞|129.32653501206488|35.537345435332185||
411||196104533||94|40412|달동현대아파트앞|129.32310989719213|35.53646734525863||
412||196104533||95|40410|굿모닝병원앞|129.32054730842322|35.5358350644831||
413||196104533||96|40408|롯데마트|129.31635923458|35.53473891890672||
414||196104533||97|40404|공업탑|129.30936225207023|35.53290851234016||
415||196104533||98|31301|울산대공원동문앞|129.30794708728916|35.5307069960795||
416||196104533||99|31303|신일중학교앞|129.31146341017316|35.5244400827314||
417||196104533||100|31307|삼일여고입구|129.3111789788859|35.519593418710485||
418||196104533||101|22416|문수정입구|129.3007828924084|35.51851644241457||
419||196104533||102|22414|중간갈티마을입구|129.29511067735388|35.52065597552852||
420||196104533||103|22412|갈현마을회관|129.28815141180786|35.52460050200415||
421||196104533||104|22410|울산대공원남문|129.28343919971837|35.526801685530415||
422||196104533||105|22408|갈티마을입구|129.27334729452656|35.5272800820526||
423||196104533||106|22406|울산국제양궁장|129.2686502332007|35.530204010645214||
424||196104533||107|22404|성광여고앞|129.2650787960781|35.54157188829633||
425||196104533||108|22402|옥현주공아파트앞|129.26434159793445|35.54501893215593||
426||196104533||109|30703|신복로터리|129.2628015336732|35.5492418912129||
427||196104533||110|30705|울산대후문앞|129.2611685990153|35.54628684439996||
428||196104533||111|30707|울산대학교앞|129.25943276098994|35.54285980003063||
429||196104533||112|30711|울산과학대학앞|129.25707887289198|35.5399506695413||
430||196104533||113|30713|문수경기장입구|129.25413996489775|35.536651649668876||
431||196104533||114|30597|문수실버복지관|129.25155580778494|35.53493049458871||
432||196104533||115|30503|율리|129.24685027944395|35.52945640846956||
433||196104721||1|24441|한솔그린빌|129.21241864071874|35.48983055570737||
434||196104721||2|24443|대복구판장|129.21371172054495|35.487844584618955||
435||196104721||3|24446|대복입구|129.21643588275379|35.48491167744997||
436||196104721||4|24629|쌍용하나빌리지입구|129.22922419402792|35.491994761953364||
437||196104721||5|30512|율현마을|129.23673339413142|35.50913527006418||
438||196104721||6|30510|문수초등학교앞|129.24202061451473|35.51915938428568||
439||196104721||7|30508|영해마을|129.24502302993872|35.525491560637||
440||196104721||8|30714|우신고등학교입구|129.25526381377162|35.53747163114245||
441||196104721||9|30712|울산과학대학앞|129.25737976483651|35.539857813997564||
442||196104721||10|30708|울산대학교앞|129.26024568344098|35.54380876611638||
443||196104721||11|30706|울산대후문앞|129.261867633339|35.54674086187228||
444||196104721||12|30704|신복로터리|129.2630004459419|35.5488318311222||
445||196104721||13|22401|옥현주공아파트앞|129.263801592218|35.54600090798647||
446||196104721||14|22403|성광여고앞|129.26436981568315|35.54166087066438||
447||196104721||15|40601|공원묘지입구|129.27902292532733|35.537165270673654||
448||196104721||16|40604|옥동중학교앞|129.28315362952392|35.53605044187563||
449||196104721||17|40605|법원앞|129.28896310789852|35.535155158385834||
450||196104721||18|40609|옥동디아채|129.2928505245448|35.53457755369657||
451||196104721||19|40607|울주군청앞|129.29613008399923|35.533979638562975||
452||196104721||20|40611|서여자중학교앞|129.30036611122307|35.53329279763821||
453||196104721||21|40613|신정고등학교앞|129.3031393189787|35.53287926960495||
454||196104721||22|40403|공업탑|129.3101711044649|35.53278178034381||
455||196104721||23|40407|롯데마트|129.31691608654629|35.53455221641973||
456||196104721||24|40409|굿모닝병원앞|129.31977202242257|35.535295226547746||
457||196104721||25|40411|달동현대아파트앞|129.32372201383373|35.53634032264056||
458||196104721||26|40528|한국산업인력공단|129.32744785090907|35.53929648033507||
459||196104721||27|40526|문화예술회관앞|129.32602767272817|35.54259644853607||
460||196104721||28|40524|KBS방송국앞|129.32511215857687|35.54466264477906||
461||196104721||29|24714|중앙전통시장|129.32516523719238|35.55490487094885||
462||196104721||30|24710|신중앙시장|129.32858140038272|35.55516947026521||
463||196104721||31|24708|이마트학성점앞|129.3312767476446|35.55528187574757||
464||196104721||32|24302|학성공원|129.33752120757887|35.555863201418916||
465||196104721||33|24704|학성초등학교후문|129.34071618060744|35.56034427065588||
466||196104721||34|24716|중구노인복지관|129.34183923483906|35.562699079750764||
467||196104721||35|24702|북울산전화국앞|129.34238492255997|35.565309827949385||
468||196104721||36|40506|병영사거리|129.34555280583615|35.5687809048202||
469||196104721||37|11308|현대골든아파트앞|129.35011970341895|35.572642988605885||
470||196104721||38|11306|산전마을|129.35048763798176|35.57437401267141||
471||196104721||39|11304|산전교앞|129.3498574733725|35.57796998674737||
472||196104721||40|11302|한국폴리텍대학앞|129.3484904337246|35.580085964845274||
473||196104721||41|30934|농수산물유통센터후문|129.35739724403484|35.580503306483436||
474||196104721||42|26342|북구청남문|129.36223684581054|35.580749818830654||
475||196104721||43|25901|덕양산업|129.3627154410314|35.58041737219549||
476||196104721||44|25903|연암삼거리|129.3629319070211|35.57589162317367||
477||196104721||45|25907|원연암마을|129.36341536380968|35.57387879200121||
478||196104721||46|25909|대신강업|129.36506174930875|35.571412423511525||
479||196104721||47|25911|세종공업앞|129.36736577384423|35.56931032457631||
480||196104721||48|25919|시민의 발 서비스|129.36733768872503|35.566239852237906||
481||196104721||49|40337|효문사거리|129.3612080934384|35.56097328051505||
482||196104721||50|40339|현대자동차명촌정문앞|129.36013387279218|35.5559265127655||
483||196104721||51|40341|평창리비에르아파트앞|129.358359185344|35.55125311528932||
484||196104721||52|12309|태화강역|129.35271931997556|35.540681583442414||
485||195109412||1|25318|농소공영차고지|129.3568851035355|35.61108599212367||
486||195109412||2|25316|차일마을|129.35745061053223|35.61642417656391||
487||195109412||3|25314|농소운동장|129.356263120517|35.62044043682427||
488||195109412||4|25312|농소1동주민센터앞|129.35538954968234|35.6222914444099||
489||195109412||5|25310|농소중학교앞|129.35369135869058|35.62488621166299||
490||195109412||6|25308|시장2리|129.35112217462205|35.62772335345554||
491||195109412||7|25306|신천|129.35076058971953|35.63191402936452||
492||195109412||8|25304|한라신천지타운앞|129.34849335489722|35.63481703904243||
493||195109412||9|25302|농소2동주민센터|129.34674824836185|35.638625925888064||
494||195109412||10|40321|원동현대아파트앞|129.34528451116373|35.63287192466446||
495||195109412||11|20208|홈플러스북구점|129.34462614782564|35.62929391023143||
496||195109412||12|20206|쌍용아진그린타운1차|129.34209238813315|35.62891993259508||
497||195109412||13|20204|쌍용아진그린타운2차|129.33869224365213|35.63089427763274||
498||195109412||14|20216|쌍용아진그린타운4차|129.3352737668769|35.631450860439756||
499||195109412||15|20210|상안초등학교앞|129.33484695955985|35.6345461170644||
500||195109412||16|20212|가재골|129.33372101535758|35.636855005704376||
501||195109412||17|14306|천곡마을입구|129.3320616677067|35.63890463657154||
502||195109412||18|14304|대동아파트앞|129.32693716983405|35.63896246142129||
503||195109412||19|14302|우방아파트|129.32390486943393|35.63823769211028||
